<svg width="24" height="24" viewBox="0 0 24 24" fill="none" xmlns="http://www.w3.org/2000/svg">
<path fill-rule="evenodd" clip-rule="evenodd" d="M21.0001 12.7992L3.05078 12.7992L3.05078 11.1992L21.0001 11.1992L21.0001 12.7992Z" fill="#111111"/>
<path fill-rule="evenodd" clip-rule="evenodd" d="M14.0005 3.86816L22.1319 11.9995L14.0005 20.1309L12.8691 18.9995L19.8691 11.9995L12.8691 4.99953L14.0005 3.86816Z" fill="#111111"/>
</svg>
